OSSConf2025 - demonstrace práce s R balíčky {terra} a {sf}
…
# propojujeme
kraje <- kraje |> 
  select(-area) |> # zbavujeme se zbytečné plochy
  left_join(kraje2 |> 
              select(-area), # zde také (dokonce uvnitř join funkce)
            join_by(kraj,
                    klic1 == klic2)) |> # využíváme celkem nového pomocníka join_by()
  mutate(val_num = if_else(klic1 == "T", val_num.x - val_num.y, val_num.x / val_num.y * 100), # lze nastavit i podmínku ve funkci mutate()
         val_num = round(val_num, 1)) 

# prohlížíme výsledek
kraje

# A tibble: 224 × 7
   kraj               vrstva.x        val_num.x klic1 vrstva.y val_num.y val_num
   <chr>              <chr>               <dbl> <chr> <chr>        <dbl>   <dbl>
 1 Hlavní město Praha SSP245_SRA_202…     507.  SRA   X1991.2…     534.     94.9
 2 Hlavní město Praha SSP245_SRA_204…     547   SRA   X1991.2…     534.    102. 
 3 Hlavní město Praha SSP245_SRA_206…     548   SRA   X1991.2…     534.    103. 
 4 Hlavní město Praha SSP245_SRA_208…     504.  SRA   X1991.2…     534.     94.3
 5 Hlavní město Praha SSP245_T_2021.…      10.8 T     X1991.2…      10.1     0.7
 6 Hlavní město Praha SSP245_T_2041.…      10.9 T     X1991.2…      10.1     0.8
 7 Hlavní město Praha SSP245_T_2061.…      11.5 T     X1991.2…      10.1     1.4
 8 Hlavní město Praha SSP245_T_2081.…      12.2 T     X1991.2…      10.1     2.1
 9 Hlavní město Praha SSP585_SRA_202…     510.  SRA   X1991.2…     534.     95.5
10 Hlavní město Praha SSP585_SRA_204…     541.  SRA   X1991.2…     534.    101. 
# ℹ 214 more rows
…
